%YAML 1.1
%TAG !u! tag:unity3d.com,2011:
--- !u!114 &11400000
MonoBehaviour:
  m_ObjectHideFlags: 0
  m_PrefabParentObject: {fileID: 0}
  m_PrefabInternal: {fileID: 0}
  m_GameObject: {fileID: 0}
  m_Enabled: 0
  m_EditorHideFlags: 0
  m_Script: {fileID: 11500000, guid: 28c79f4f383ed6f499d445c6ebf70b0f, type: 3}
  m_Name: Todo
  m_EditorClassIdentifier: 
  Messages:
  - Pause menu
  - Default keys; esc, pause/break, shift, space, enter
  - 
  - 
  - 
  - 
  - 
  - 
  - 
  - 
  IncrementalMessages: []
