%YAML 1.1
%TAG !u! tag:unity3d.com,2011:
--- !u!114 &11400000
MonoBehaviour:
  m_ObjectHideFlags: 0
  m_PrefabParentObject: {fileID: 0}
  m_PrefabInternal: {fileID: 0}
  m_GameObject: {fileID: 0}
  m_Enabled: 1
  m_EditorHideFlags: 0
  m_Script: {fileID: 11500000, guid: 07aa65cf677884b4bba2e7b1c49ea4ca, type: 3}
  m_Name: VolumeMixController
  m_EditorClassIdentifier: 
  _mixer: {fileID: 24100000, guid: 82b8441f7dbf03b4789ce75b298b5b69, type: 2}
  _masterVolumeParamName: master_volume
  _musicVolumeParamName: music_volume
  _sfxVolumeParamName: sfx_volume
  _uiVolumeParamName: ui_volume
  _masterVolume: 0
  _musicVolume: 0
  _sfxVolume: 0
  _uiVolume: 0
