%YAML 1.1
%TAG !u! tag:unity3d.com,2011:
--- !u!1045 &1
EditorBuildSettings:
  m_ObjectHideFlags: 0
  serializedVersion: 2
  m_Scenes:
  - enabled: 1
    path: Assets/Scenes/init.unity
    guid: b5ac6c57124c475459ea1153b8cfa9be
  - enabled: 1
    path: Assets/Scenes/menu.unity
    guid: 58d772123372e27418394857e32e9c2c
  - enabled: 1
    path: Assets/Scenes/main.unity
    guid: cd488ce4737ce524c89666acb98fb14d
  - enabled: 1
    path: Assets/Scenes/test.unity
    guid: 9839e964fd0c4ed4793f4b4e3cb2d934
